{
  "project_info": {
    "project_number": "430917985673",
    "project_id": "tenet-test-264be",
    "storage_bucket": "tenet-test-264be.appspot.com"
  },
  "client": [
    {
      "client_info": {
        "mobilesdk_app_id": "1:430917985673:android:458a839d0b5037cc9f2d58",
        "android_client_info": {
          "package_name": "com.tenet"
        }
      },
      "oauth_client": [
        {
          "client_id": "430917985673-cck10toi0p86cri6g32g6t57pk1b6goj.apps.googleusercontent.com",
          "client_type": 1,
          "android_info": {
            "package_name": "com.tenet",
            "certificate_hash": "5e8f16062ea3cd2c4a0d547876baa6f38cabf625"
          }
        },
        {
          "client_id": "430917985673-e4nippcpuc8eir510cqbt3ge8dop17p5.apps.googleusercontent.com",
          "client_type": 3
        }
      ],
      "api_key": [
        {
          "current_key": "AIzaSyDNKhFGAUDm8OxNSjXBiQLCB5bdj0PBEGc"
        }
      ],
      "services": {
        "appinvite_service": {
          "other_platform_oauth_client": [
            {
              "client_id": "430917985673-e4nippcpuc8eir510cqbt3ge8dop17p5.apps.googleusercontent.com",
              "client_type": 3
            }
          ]
        }
      }
    }
  ],
  "configuration_version": "1"
}